[
  {
    "name": "Susanna",
    "surname": "Hall",
    "age": 34,
    "dni": "21773506G",
    "phone": 635185684,
    "gender": "female",
    "dorsal": 1,
    "federat": true,
    "rendiment": 9
  },
  {
    "name": "Talley",
    "surname": "Todd",
    "age": 23,
    "dni": "21773506G",
    "phone": 635185684,
    "gender": "male",
    "dorsal": 8,
    "federat": false,
    "rendiment": 11
  },
  {
    "name": "Clay",
    "surname": "Clements",
    "age": 20,
    "dni": "21773506G",
    "phone": 635185684,
    "gender": "male",
    "dorsal": 9,
    "federat": true,
    "rendiment": 11
  },
  {
    "name": "Miriam",
    "surname": "Curry",
    "age": 40,
    "dni": "21773506G",
    "phone": 635185684,
    "gender": "female",
    "dorsal": 0,
    "federat": true,
    "rendiment": 10
  },
  {
    "name": "Simmons",
    "surname": "Rasmussen",
    "age": 39,
    "dni": "21773506G",
    "phone": 635185684,
    "gender": "male",
    "dorsal": 7,
    "federat": true,
    "rendiment": 11
  }
]